#VRML V2.0 utf8


Group {
  children 
    DEF o0 Group {
      children 
        DEF o1 Group {
          children 
            DEF o2 Transform {
              translation 3 0 0
              rotation 0 0 1  0
              scale 1 1 1
              scaleOrientation 0 0 1  0
              center 0 0 0
              children 
                DEF o3 Group {
                  children [ 
                    DEF o4 Group {
                      children 
                        DEF o5 Shape {
                          appearance 
                          Appearance {
                            material 
                            Material {
                              diffuseColor 0.098039217 0.098039217 0.098039217
                              shininess 1

                            }

                          }
                          geometry 
                          IndexedLineSet {
                            coord 
                            DEF o6 Coordinate {
                              point [ -3.5 1 4.5999999,
                                  -3.5 1 0,
                                  3.5 1 0,
                                  3.5 1 4.5999999,
                                  0.25 1 4.5999999,
                                  0.25 1 2.802177,
                                  0.5 1 2.802177,
                                  0.5 1 0.28807399,
                                  -0.5 1 0.28807399,
                                  -0.5 1 2.802177,
                                  -0.25 1 2.802177,
                                  -0.25 1 4.5999999,
                                  -3.5 -2.25 0,
                                  -3.5 -2.25 3.5999999,
                                  -3.5 -1.75 3.5999999,
                                  -3.5 -1.75 4.5999999,
                                  -3.5 1 4.5999999,
                                  -3.5 1 0,
                                  -3.5 1 0,
                                  3.5 1 0,
                                  -3.5 -2.25 0,
                                  3.5 -2.25 0,
                                  -1.875 0.175 0,
                                  -1.625 0.175 0,
                                  -1.575 0.125 0,
                                  -1.575 -0.125 0,
                                  -1.625 -0.175 0,
                                  -1.875 -0.175 0,
                                  -1.925 -0.125 0,
                                  -1.925 0.125 0,
                                  -0.625 0.175 0,
                                  -0.375 0.175 0,
                                  -0.32499999 0.125 0,
                                  -0.32499999 -0.125 0,
                                  -0.375 -0.175 0,
                                  -0.625 -0.175 0,
                                  -0.67500001 -0.125 0,
                                  -0.67500001 0.125 0,
                                  1.875 0.175 0,
                                  2.125 0.175 0,
                                  2.175 0.125 0,
                                  2.175 -0.125 0,
                                  2.125 -0.175 0,
                                  1.875 -0.175 0,
                                  1.825 -0.125 0,
                                  1.825 0.125 0,
                                  0.625 0.175 0,
                                  0.875 0.175 0,
                                  0.92500001 0.125 0,
                                  0.92500001 -0.125 0,
                                  0.875 -0.175 0,
                                  0.625 -0.175 0,
                                  0.57499999 -0.125 0,
                                  0.57499999 0.125 0,
                                  3.5 -2.25 0,
                                  3.5 -2.25 3.5999999,
                                  3.5 -1.75 3.5999999,
                                  3.5 -1.75 4.5999999,
                                  3.5 1 4.5999999,
                                  3.5 1 0,
                                  0.25 1 4.5999999,
                                  3.5 1 4.5999999,
                                  3.5 -1.75 4.5999999,
                                  3.3 -1.75 4.5999999,
                                  3.3 0.80000001 4.5999999,
                                  0.25 0.80000001 4.5999999,
                                  0.25 1 4.5999999,
                                  0.25 1 2.802177,
                                  0.25 0.80000001 2.802177,
                                  0.25 0.80000001 4.5999999,
                                  0.25 1 2.802177,
                                  0.25 0.80000001 2.802177,
                                  0.5 1 2.802177,
                                  0.5 0.80000001 2.802177,
                                  0.5 1 2.802177,
                                  0.5 0.80000001 2.802177,
                                  0.5 1 0.28807399,
                                  0.5 0.80000001 0.28807399,
                                  0.5 1 0.28807399,
                                  0.5 0.80000001 0.28807399,
                                  -0.5 1 0.28807399,
                                  -0.5 0.80000001 0.28807399,
                                  -0.5 1 0.28807399,
                                  -0.5 0.80000001 0.28807399,
                                  -0.5 1 2.802177,
                                  -0.5 0.80000001 2.802177,
                                  -0.5 1 2.802177,
                                  -0.5 0.80000001 2.802177,
                                  -0.25 1 2.802177,
                                  -0.25 0.80000001 2.802177,
                                  -0.25 1 2.802177,
                                  -0.25 1 4.5999999,
                                  -0.25 0.80000001 4.5999999,
                                  -0.25 0.80000001 2.802177,
                                  -3.5 1 4.5999999,
                                  -0.25 1 4.5999999,
                                  -0.25 0.80000001 4.5999999,
                                  -3.3 0.80000001 4.5999999,
                                  -3.3 -1.75 4.5999999,
                                  -3.5 -1.75 4.5999999,
                                  -3.5 -2.25 0,
                                  3.5 -2.25 0,
                                  -3.5 -2.25 3.5999999,
                                  3.5 -2.25 3.5999999,
                                  -3.5 -2.25 3.5999999,
                                  3.5 -2.25 3.5999999,
                                  3.5 -1.75 3.5999999,
                                  3.3 -1.75 3.5999999,
                                  3.3 -2.05 3.5999999,
                                  -3.3 -2.05 3.5999999,
                                  -3.3 -1.75 3.5999999,
                                  -3.5 -1.75 3.5999999,
                                  -3.5 -1.75 3.5999999,
                                  -3.3 -1.75 3.5999999,
                                  -3.3 -1.75 4.5999999,
                                  -3.5 -1.75 4.5999999,
                                  -1.875 0.175 -2.3499999,
                                  -1.625 0.175 -2.3499999,
                                  -1.625 0.175 0,
                                  -1.875 0.175 0,
                                  -1.625 0.175 -2.3499999,
                                  -1.6 0.15000001 -2.375,
                                  -1.575 0.125 -2.3499999,
                                  -1.575 0.125 0,
                                  -1.625 0.175 0,
                                  -1.575 0.125 -2.3499999,
                                  -1.575 -0.125 -2.3499999,
                                  -1.575 -0.125 0,
                                  -1.575 0.125 0,
                                  -1.575 -0.125 -2.3499999,
                                  -1.6 -0.15000001 -2.375,
                                  -1.625 -0.175 -2.3499999,
                                  -1.625 -0.175 0,
                                  -1.575 -0.125 0,
                                  -1.625 -0.175 -2.3499999,
                                  -1.875 -0.175 -2.3499999,
                                  -1.875 -0.175 0,
                                  -1.625 -0.175 0,
                                  -1.925 -0.125 -2.3499999,
                                  -1.9 -0.15000001 -2.375,
                                  -1.875 -0.175 -2.3499999,
                                  -1.875 -0.175 0,
                                  -1.925 -0.125 0,
                                  -1.925 -0.125 -2.3499999,
                                  -1.925 0.125 -2.3499999,
                                  -1.925 0.125 0,
                                  -1.925 -0.125 0,
                                  -1.875 0.175 -2.3499999,
                                  -1.9 0.15000001 -2.375,
                                  -1.925 0.125 -2.3499999,
                                  -1.925 0.125 0,
                                  -1.875 0.175 0,
                                  -0.625 0.175 -2.3499999,
                                  -0.375 0.175 -2.3499999,
                                  -0.375 0.175 0,
                                  -0.625 0.175 0,
                                  -0.375 0.175 -2.3499999,
                                  -0.34999999 0.15000001 -2.375,
                                  -0.32499999 0.125 -2.3499999,
                                  -0.32499999 0.125 0,
                                  -0.375 0.175 0,
                                  -0.32499999 0.125 -2.3499999,
                                  -0.32499999 -0.125 -2.3499999,
                                  -0.32499999 -0.125 0,
                                  -0.32499999 0.125 0,
                                  -0.32499999 -0.125 -2.3499999,
                                  -0.34999999 -0.15000001 -2.375,
                                  -0.375 -0.175 -2.3499999,
                                  -0.375 -0.175 0,
                                  -0.32499999 -0.125 0,
                                  -0.375 -0.175 -2.3499999,
                                  -0.625 -0.175 -2.3499999,
                                  -0.625 -0.175 0,
                                  -0.375 -0.175 0,
                                  -0.67500001 -0.125 -2.3499999,
                                  -0.64999998 -0.15000001 -2.375,
                                  -0.625 -0.175 -2.3499999,
                                  -0.625 -0.175 0,
                                  -0.67500001 -0.125 0,
                                  -0.67500001 -0.125 -2.3499999,
                                  -0.67500001 0.125 -2.3499999,
                                  -0.67500001 0.125 0,
                                  -0.67500001 -0.125 0,
                                  -0.625 0.175 -2.3499999,
                                  -0.64999998 0.15000001 -2.375,
                                  -0.67500001 0.125 -2.3499999,
                                  -0.67500001 0.125 0,
                                  -0.625 0.175 0,
                                  1.875 0.175 -2.3499999,
                                  2.125 0.175 -2.3499999,
                                  2.125 0.175 0,
                                  1.875 0.175 0,
                                  2.125 0.175 -2.3499999,
                                  2.1500001 0.15000001 -2.375,
                                  2.175 0.125 -2.3499999,
                                  2.175 0.125 0,
                                  2.125 0.175 0,
                                  2.175 0.125 -2.3499999,
                                  2.175 -0.125 -2.3499999,
                                  2.175 -0.125 0,
                                  2.175 0.125 0,
                                  2.175 -0.125 -2.3499999,
                                  2.1500001 -0.15000001 -2.375,
                                  2.125 -0.175 -2.3499999,
                                  2.125 -0.175 0,
                                  2.175 -0.125 0,
                                  2.125 -0.175 -2.3499999,
                                  1.875 -0.175 -2.3499999,
                                  1.875 -0.175 0,
                                  2.125 -0.175 0,
                                  1.825 -0.125 -2.3499999,
                                  1.85 -0.15000001 -2.375,
                                  1.875 -0.175 -2.3499999,
                                  1.875 -0.175 0,
                                  1.825 -0.125 0,
                                  1.825 -0.125 -2.3499999,
                                  1.825 0.125 -2.3499999,
                                  1.825 0.125 0,
                                  1.825 -0.125 0,
                                  1.875 0.175 -2.3499999,
                                  1.85 0.15000001 -2.375,
                                  1.825 0.125 -2.3499999,
                                  1.825 0.125 0,
                                  1.875 0.175 0,
                                  0.625 0.175 -2.3499999,
                                  0.875 0.175 -2.3499999,
                                  0.875 0.175 0,
                                  0.625 0.175 0,
                                  0.875 0.175 -2.3499999,
                                  0.89999998 0.15000001 -2.375,
                                  0.92500001 0.125 -2.3499999,
                                  0.92500001 0.125 0,
                                  0.875 0.175 0,
                                  0.92500001 0.125 -2.3499999,
                                  0.92500001 -0.125 -2.3499999,
                                  0.92500001 -0.125 0,
                                  0.92500001 0.125 0,
                                  0.92500001 -0.125 -2.3499999,
                                  0.89999998 -0.15000001 -2.375,
                                  0.875 -0.175 -2.3499999,
                                  0.875 -0.175 0,
                                  0.92500001 -0.125 0,
                                  0.875 -0.175 -2.3499999,
                                  0.625 -0.175 -2.3499999,
                                  0.625 -0.175 0,
                                  0.875 -0.175 0,
                                  0.57499999 -0.125 -2.3499999,
                                  0.60000002 -0.15000001 -2.375,
                                  0.625 -0.175 -2.3499999,
                                  0.625 -0.175 0,
                                  0.57499999 -0.125 0,
                                  0.57499999 -0.125 -2.3499999,
                                  0.57499999 0.125 -2.3499999,
                                  0.57499999 0.125 0,
                                  0.57499999 -0.125 0,
                                  0.625 0.175 -2.3499999,
                                  0.60000002 0.15000001 -2.375,
                                  0.57499999 0.125 -2.3499999,
                                  0.57499999 0.125 0,
                                  0.625 0.175 0,
                                  3.3 -1.75 4.5999999,
                                  3.5 -1.75 4.5999999,
                                  3.3 -1.75 3.5999999,
                                  3.5 -1.75 3.5999999,
                                  3.3 -1.75 4.5999999,
                                  3.3 -1.75 3.5999999,
                                  3.3 0.80000001 4.5999999,
                                  3.3 0.80000001 0.2,
                                  3.3 -2.05 0.2,
                                  3.3 -2.05 3.5999999,
                                  3.3 0.80000001 0.2,
                                  3.3 0.80000001 4.5999999,
                                  0.25 0.80000001 4.5999999,
                                  0.25 0.80000001 2.802177,
                                  0.5 0.80000001 2.802177,
                                  0.5 0.80000001 0.28807399,
                                  -0.5 0.80000001 0.28807399,
                                  -0.5 0.80000001 2.802177,
                                  -0.25 0.80000001 2.802177,
                                  -0.25 0.80000001 4.5999999,
                                  -3.3 0.80000001 4.5999999,
                                  -3.3 0.80000001 0.2,
                                  -3.3 -1.75 4.5999999,
                                  -3.3 -1.75 3.5999999,
                                  -3.3 0.80000001 4.5999999,
                                  -3.3 0.80000001 0.2,
                                  -3.3 -2.05 0.2,
                                  -3.3 -2.05 3.5999999,
                                  -3.3 -2.05 0.2,
                                  3.3 -2.05 0.2,
                                  3.3 -2.05 3.5999999,
                                  -3.3 -2.05 3.5999999,
                                  -1.9 0.15000001 -2.375,
                                  -1.775 0.025 -2.5,
                                  -1.875 0.175 -2.3499999,
                                  -1.725 0.025 -2.5,
                                  -1.625 0.175 -2.3499999,
                                  -1.6 0.15000001 -2.375,
                                  -1.6 0.15000001 -2.375,
                                  -1.725 0.025 -2.5,
                                  -1.575 0.125 -2.3499999,
                                  -1.725 -0.025 -2.5,
                                  -1.575 -0.125 -2.3499999,
                                  -1.6 -0.15000001 -2.375,
                                  -1.6 -0.15000001 -2.375,
                                  -1.725 -0.025 -2.5,
                                  -1.625 -0.175 -2.3499999,
                                  -1.775 -0.025 -2.5,
                                  -1.875 -0.175 -2.3499999,
                                  -1.9 -0.15000001 -2.375,
                                  -1.9 -0.15000001 -2.375,
                                  -1.775 -0.025 -2.5,
                                  -1.925 -0.125 -2.3499999,
                                  -1.775 0.025 -2.5,
                                  -1.925 0.125 -2.3499999,
                                  -1.9 0.15000001 -2.375,
                                  -0.64999998 0.15000001 -2.375,
                                  -0.52499998 0.025 -2.5,
                                  -0.625 0.175 -2.3499999,
                                  -0.47499999 0.025 -2.5,
                                  -0.375 0.175 -2.3499999,
                                  -0.34999999 0.15000001 -2.375,
                                  -0.34999999 0.15000001 -2.375,
                                  -0.47499999 0.025 -2.5,
                                  -0.32499999 0.125 -2.3499999,
                                  -0.47499999 -0.025 -2.5,
                                  -0.32499999 -0.125 -2.3499999,
                                  -0.34999999 -0.15000001 -2.375,
                                  -0.34999999 -0.15000001 -2.375,
                                  -0.47499999 -0.025 -2.5,
                                  -0.375 -0.175 -2.3499999,
                                  -0.52499998 -0.025 -2.5,
                                  -0.625 -0.175 -2.3499999,
                                  -0.64999998 -0.15000001 -2.375,
                                  -0.64999998 -0.15000001 -2.375,
                                  -0.52499998 -0.025 -2.5,
                                  -0.67500001 -0.125 -2.3499999,
                                  -0.52499998 0.025 -2.5,
                                  -0.67500001 0.125 -2.3499999,
                                  -0.64999998 0.15000001 -2.375,
                                  1.85 0.15000001 -2.375,
                                  1.975 0.025 -2.5,
                                  1.875 0.175 -2.3499999,
                                  2.0250001 0.025 -2.5,
                                  2.125 0.175 -2.3499999,
                                  2.1500001 0.15000001 -2.375,
                                  2.1500001 0.15000001 -2.375,
                                  2.0250001 0.025 -2.5,
                                  2.175 0.125 -2.3499999,
                                  2.0250001 -0.025 -2.5,
                                  2.175 -0.125 -2.3499999,
                                  2.1500001 -0.15000001 -2.375,
                                  2.1500001 -0.15000001 -2.375,
                                  2.0250001 -0.025 -2.5,
                                  2.125 -0.175 -2.3499999,
                                  1.975 -0.025 -2.5,
                                  1.875 -0.175 -2.3499999,
                                  1.85 -0.15000001 -2.375,
                                  1.85 -0.15000001 -2.375,
                                  1.975 -0.025 -2.5,
                                  1.825 -0.125 -2.3499999,
                                  1.975 0.025 -2.5,
                                  1.825 0.125 -2.3499999,
                                  1.85 0.15000001 -2.375,
                                  0.60000002 0.15000001 -2.375,
                                  0.72500002 0.025 -2.5,
                                  0.625 0.175 -2.3499999,
                                  0.77499998 0.025 -2.5,
                                  0.875 0.175 -2.3499999,
                                  0.89999998 0.15000001 -2.375,
                                  0.89999998 0.15000001 -2.375,
                                  0.77499998 0.025 -2.5,
                                  0.92500001 0.125 -2.3499999,
                                  0.77499998 -0.025 -2.5,
                                  0.92500001 -0.125 -2.3499999,
                                  0.89999998 -0.15000001 -2.375,
                                  0.89999998 -0.15000001 -2.375,
                                  0.77499998 -0.025 -2.5,
                                  0.875 -0.175 -2.3499999,
                                  0.72500002 -0.025 -2.5,
                                  0.625 -0.175 -2.3499999,
                                  0.60000002 -0.15000001 -2.375,
                                  0.60000002 -0.15000001 -2.375,
                                  0.72500002 -0.025 -2.5,
                                  0.57499999 -0.125 -2.3499999,
                                  0.72500002 0.025 -2.5,
                                  0.57499999 0.125 -2.3499999,
                                  0.60000002 0.15000001 -2.375,
                                  -3.3 -2.05 0.2,
                                  -3.3 0.80000001 0.2,
                                  3.3 -2.05 0.2,
                                  3.3 0.80000001 0.2,
                                  -1.875 0.175 0.2,
                                  -1.625 0.175 0.2,
                                  -1.575 0.125 0.2,
                                  -1.575 -0.125 0.2,
                                  -1.625 -0.175 0.2,
                                  -1.875 -0.175 0.2,
                                  -1.925 -0.125 0.2,
                                  -1.925 0.125 0.2,
                                  -0.625 0.175 0.2,
                                  -0.375 0.175 0.2,
                                  -0.32499999 0.125 0.2,
                                  -0.32499999 -0.125 0.2,
                                  -0.375 -0.175 0.2,
                                  -0.625 -0.175 0.2,
                                  -0.67500001 -0.125 0.2,
                                  -0.67500001 0.125 0.2,
                                  1.875 0.175 0.2,
                                  2.125 0.175 0.2,
                                  2.175 0.125 0.2,
                                  2.175 -0.125 0.2,
                                  2.125 -0.175 0.2,
                                  1.875 -0.175 0.2,
                                  1.825 -0.125 0.2,
                                  1.825 0.125 0.2,
                                  0.625 0.175 0.2,
                                  0.875 0.175 0.2,
                                  0.92500001 0.125 0.2,
                                  0.92500001 -0.125 0.2,
                                  0.875 -0.175 0.2,
                                  0.625 -0.175 0.2,
                                  0.57499999 -0.125 0.2,
                                  0.57499999 0.125 0.2,
                                  -1.775 0.025 -2.5,
                                  -1.725 0.025 -2.5,
                                  -1.775 -0.025 -2.5,
                                  -1.725 -0.025 -2.5,
                                  -0.52499998 0.025 -2.5,
                                  -0.47499999 0.025 -2.5,
                                  -0.52499998 -0.025 -2.5,
                                  -0.47499999 -0.025 -2.5,
                                  1.975 0.025 -2.5,
                                  2.0250001 0.025 -2.5,
                                  1.975 -0.025 -2.5,
                                  2.0250001 -0.025 -2.5,
                                  0.72500002 0.025 -2.5,
                                  0.77499998 0.025 -2.5,
                                  0.72500002 -0.025 -2.5,
                                  0.77499998 -0.025 -2.5,
                                  -1.875 0.175 0.2,
                                  -1.625 0.175 0.2,
                                  -1.625 0.175 2.5,
                                  -1.875 0.175 2.5,
                                  -1.625 0.175 0.2,
                                  -1.575 0.125 0.2,
                                  -1.575 0.125 2.5,
                                  -1.625 0.175 2.5,
                                  -1.575 0.125 0.2,
                                  -1.575 -0.125 0.2,
                                  -1.575 -0.125 2.5,
                                  -1.575 0.125 2.5,
                                  -1.575 -0.125 0.2,
                                  -1.625 -0.175 0.2,
                                  -1.625 -0.175 2.5,
                                  -1.575 -0.125 2.5,
                                  -1.625 -0.175 0.2,
                                  -1.875 -0.175 0.2,
                                  -1.875 -0.175 2.5,
                                  -1.625 -0.175 2.5,
                                  -1.925 -0.125 0.2,
                                  -1.875 -0.175 0.2,
                                  -1.875 -0.175 2.5,
                                  -1.925 -0.125 2.5,
                                  -1.925 -0.125 0.2,
                                  -1.925 0.125 0.2,
                                  -1.925 0.125 2.5,
                                  -1.925 -0.125 2.5,
                                  -1.875 0.175 0.2,
                                  -1.925 0.125 0.2,
                                  -1.925 0.125 2.5,
                                  -1.875 0.175 2.5,
                                  -0.625 0.175 0.2,
                                  -0.375 0.175 0.2,
                                  -0.375 0.175 2.5,
                                  -0.625 0.175 2.5,
                                  -0.375 0.175 0.2,
                                  -0.32499999 0.125 0.2,
                                  -0.32499999 0.125 2.5,
                                  -0.375 0.175 2.5,
                                  -0.32499999 0.125 0.2,
                                  -0.32499999 -0.125 0.2,
                                  -0.32499999 -0.125 2.5,
                                  -0.32499999 0.125 2.5,
                                  -0.32499999 -0.125 0.2,
                                  -0.375 -0.175 0.2,
                                  -0.375 -0.175 2.5,
                                  -0.32499999 -0.125 2.5,
                                  -0.375 -0.175 0.2,
                                  -0.625 -0.175 0.2,
                                  -0.625 -0.175 2.5,
                                  -0.375 -0.175 2.5,
                                  -0.67500001 -0.125 0.2,
                                  -0.625 -0.175 0.2,
                                  -0.625 -0.175 2.5,
                                  -0.67500001 -0.125 2.5,
                                  -0.67500001 -0.125 0.2,
                                  -0.67500001 0.125 0.2,
                                  -0.67500001 0.125 2.5,
                                  -0.67500001 -0.125 2.5,
                                  -0.625 0.175 0.2,
                                  -0.67500001 0.125 0.2,
                                  -0.67500001 0.125 2.5,
                                  -0.625 0.175 2.5,
                                  1.875 0.175 0.2,
                                  2.125 0.175 0.2,
                                  2.125 0.175 2.5,
                                  1.875 0.175 2.5,
                                  2.125 0.175 0.2,
                                  2.175 0.125 0.2,
                                  2.175 0.125 2.5,
                                  2.125 0.175 2.5,
                                  2.175 0.125 0.2,
                                  2.175 -0.125 0.2,
                                  2.175 -0.125 2.5,
                                  2.175 0.125 2.5,
                                  2.175 -0.125 0.2,
                                  2.125 -0.175 0.2,
                                  2.125 -0.175 2.5,
                                  2.175 -0.125 2.5,
                                  2.125 -0.175 0.2,
                                  1.875 -0.175 0.2,
                                  1.875 -0.175 2.5,
                                  2.125 -0.175 2.5,
                                  1.825 -0.125 0.2,
                                  1.875 -0.175 0.2,
                                  1.875 -0.175 2.5,
                                  1.825 -0.125 2.5,
                                  1.825 -0.125 0.2,
                                  1.825 0.125 0.2,
                                  1.825 0.125 2.5,
                                  1.825 -0.125 2.5,
                                  1.875 0.175 0.2,
                                  1.825 0.125 0.2,
                                  1.825 0.125 2.5,
                                  1.875 0.175 2.5,
                                  0.625 0.175 0.2,
                                  0.875 0.175 0.2,
                                  0.875 0.175 2.5,
                                  0.625 0.175 2.5,
                                  0.875 0.175 0.2,
                                  0.92500001 0.125 0.2,
                                  0.92500001 0.125 2.5,
                                  0.875 0.175 2.5,
                                  0.92500001 0.125 0.2,
                                  0.92500001 -0.125 0.2,
                                  0.92500001 -0.125 2.5,
                                  0.92500001 0.125 2.5,
                                  0.92500001 -0.125 0.2,
                                  0.875 -0.175 0.2,
                                  0.875 -0.175 2.5,
                                  0.92500001 -0.125 2.5,
                                  0.875 -0.175 0.2,
                                  0.625 -0.175 0.2,
                                  0.625 -0.175 2.5,
                                  0.875 -0.175 2.5,
                                  0.57499999 -0.125 0.2,
                                  0.625 -0.175 0.2,
                                  0.625 -0.175 2.5,
                                  0.57499999 -0.125 2.5,
                                  0.57499999 -0.125 0.2,
                                  0.57499999 0.125 0.2,
                                  0.57499999 0.125 2.5,
                                  0.57499999 -0.125 2.5,
                                  0.625 0.175 0.2,
                                  0.57499999 0.125 0.2,
                                  0.57499999 0.125 2.5,
                                  0.625 0.175 2.5,
                                  -1.875 0.175 2.5,
                                  -1.625 0.175 2.5,
                                  -1.925 0.125 2.5,
                                  -1.575 0.125 2.5,
                                  -1.925 -0.125 2.5,
                                  -1.575 -0.125 2.5,
                                  -1.875 -0.175 2.5,
                                  -1.625 -0.175 2.5,
                                  -0.625 0.175 2.5,
                                  -0.375 0.175 2.5,
                                  -0.67500001 0.125 2.5,
                                  -0.32499999 0.125 2.5,
                                  -0.67500001 -0.125 2.5,
                                  -0.32499999 -0.125 2.5,
                                  -0.625 -0.175 2.5,
                                  -0.375 -0.175 2.5,
                                  1.875 0.175 2.5,
                                  2.125 0.175 2.5,
                                  1.825 0.125 2.5,
                                  2.175 0.125 2.5,
                                  1.825 -0.125 2.5,
                                  2.175 -0.125 2.5,
                                  1.875 -0.175 2.5,
                                  2.125 -0.175 2.5,
                                  0.625 0.175 2.5,
                                  0.875 0.175 2.5,
                                  0.57499999 0.125 2.5,
                                  0.92500001 0.125 2.5,
                                  0.57499999 -0.125 2.5,
                                  0.92500001 -0.125 2.5,
                                  0.625 -0.175 2.5,
                                  0.875 -0.175 2.5,
                                  -3.5 1 4.5999999,
                                  -3.5 1 0,
                                  3.5 1 0,
                                  3.5 1 4.5999999,
                                  0.25 1 4.5999999,
                                  0.25 1 2.802177,
                                  0.5 1 2.802177,
                                  0.5 1 0.28807399,
                                  -0.5 1 0.28807399,
                                  -0.5 1 2.802177,
                                  -0.25 1 2.802177,
                                  -0.25 1 4.5999999,
                                  -3.5 -2.25 0,
                                  -3.5 -2.25 3.5999999,
                                  -3.5 -1.75 3.5999999,
                                  -3.5 -1.75 4.5999999,
                                  3.5 -2.25 0,
                                  -1.875 0.175 0,
                                  -1.625 0.175 0,
                                  -1.575 0.125 0,
                                  -1.575 -0.125 0,
                                  -1.625 -0.175 0,
                                  -1.875 -0.175 0,
                                  -1.925 -0.125 0,
                                  -1.925 0.125 0,
                                  -0.625 0.175 0,
                                  -0.375 0.175 0,
                                  -0.32499999 0.125 0,
                                  -0.32499999 -0.125 0,
                                  -0.375 -0.175 0,
                                  -0.625 -0.175 0,
                                  -0.67500001 -0.125 0,
                                  -0.67500001 0.125 0,
                                  1.875 0.175 0,
                                  2.125 0.175 0,
                                  2.175 0.125 0,
                                  2.175 -0.125 0,
                                  2.125 -0.175 0,
                                  1.875 -0.175 0,
                                  1.825 -0.125 0,
                                  1.825 0.125 0,
                                  0.625 0.175 0,
                                  0.875 0.175 0,
                                  0.92500001 0.125 0,
                                  0.92500001 -0.125 0,
                                  0.875 -0.175 0,
                                  0.625 -0.175 0,
                                  0.57499999 -0.125 0,
                                  0.57499999 0.125 0,
                                  3.5 -2.25 3.5999999,
                                  3.5 -1.75 3.5999999,
                                  3.5 -1.75 4.5999999,
                                  3.3 -1.75 4.5999999,
                                  3.3 0.80000001 4.5999999,
                                  0.25 0.80000001 4.5999999,
                                  0.25 0.80000001 2.802177,
                                  0.5 0.80000001 2.802177,
                                  0.5 0.80000001 0.28807399,
                                  -0.5 0.80000001 0.28807399,
                                  -0.5 0.80000001 2.802177,
                                  -0.25 0.80000001 2.802177,
                                  -0.25 0.80000001 4.5999999,
                                  -3.3 0.80000001 4.5999999,
                                  -3.3 -1.75 4.5999999,
                                  3.3 -1.75 3.5999999,
                                  3.3 -2.05 3.5999999,
                                  -3.3 -2.05 3.5999999,
                                  -3.3 -1.75 3.5999999,
                                  -1.875 0.175 -2.3499999,
                                  -1.625 0.175 -2.3499999,
                                  -1.6 0.15000001 -2.375,
                                  -1.575 0.125 -2.3499999,
                                  -1.575 -0.125 -2.3499999,
                                  -1.6 -0.15000001 -2.375,
                                  -1.625 -0.175 -2.3499999,
                                  -1.875 -0.175 -2.3499999,
                                  -1.925 -0.125 -2.3499999,
                                  -1.9 -0.15000001 -2.375,
                                  -1.925 0.125 -2.3499999,
                                  -1.9 0.15000001 -2.375,
                                  -0.625 0.175 -2.3499999,
                                  -0.375 0.175 -2.3499999,
                                  -0.34999999 0.15000001 -2.375,
                                  -0.32499999 0.125 -2.3499999,
                                  -0.32499999 -0.125 -2.3499999,
                                  -0.34999999 -0.15000001 -2.375,
                                  -0.375 -0.175 -2.3499999,
                                  -0.625 -0.175 -2.3499999,
                                  -0.67500001 -0.125 -2.3499999,
                                  -0.64999998 -0.15000001 -2.375,
                                  -0.67500001 0.125 -2.3499999,
                                  -0.64999998 0.15000001 -2.375,
                                  1.875 0.175 -2.3499999,
                                  2.125 0.175 -2.3499999,
                                  2.1500001 0.15000001 -2.375,
                                  2.175 0.125 -2.3499999,
                                  2.175 -0.125 -2.3499999,
                                  2.1500001 -0.15000001 -2.375,
                                  2.125 -0.175 -2.3499999,
                                  1.875 -0.175 -2.3499999,
                                  1.825 -0.125 -2.3499999,
                                  1.85 -0.15000001 -2.375,
                                  1.825 0.125 -2.3499999,
                                  1.85 0.15000001 -2.375,
                                  0.625 0.175 -2.3499999,
                                  0.875 0.175 -2.3499999,
                                  0.89999998 0.15000001 -2.375,
                                  0.92500001 0.125 -2.3499999,
                                  0.92500001 -0.125 -2.3499999,
                                  0.89999998 -0.15000001 -2.375,
                                  0.875 -0.175 -2.3499999,
                                  0.625 -0.175 -2.3499999,
                                  0.57499999 -0.125 -2.3499999,
                                  0.60000002 -0.15000001 -2.375,
                                  0.57499999 0.125 -2.3499999,
                                  0.60000002 0.15000001 -2.375,
                                  3.3 0.80000001 0.2,
                                  3.3 -2.05 0.2,
                                  -3.3 0.80000001 0.2,
                                  -3.3 -2.05 0.2,
                                  -1.775 0.025 -2.5,
                                  -1.725 0.025 -2.5,
                                  -1.725 -0.025 -2.5,
                                  -1.775 -0.025 -2.5,
                                  -0.52499998 0.025 -2.5,
                                  -0.47499999 0.025 -2.5,
                                  -0.47499999 -0.025 -2.5,
                                  -0.52499998 -0.025 -2.5,
                                  1.975 0.025 -2.5,
                                  2.0250001 0.025 -2.5,
                                  2.0250001 -0.025 -2.5,
                                  1.975 -0.025 -2.5,
                                  0.72500002 0.025 -2.5,
                                  0.77499998 0.025 -2.5,
                                  0.77499998 -0.025 -2.5,
                                  0.72500002 -0.025 -2.5,
                                  -1.875 0.175 0.2,
                                  -1.625 0.175 0.2,
                                  -1.575 0.125 0.2,
                                  -1.575 -0.125 0.2,
                                  -1.625 -0.175 0.2,
                                  -1.875 -0.175 0.2,
                                  -1.925 -0.125 0.2,
                                  -1.925 0.125 0.2,
                                  -0.625 0.175 0.2,
                                  -0.375 0.175 0.2,
                                  -0.32499999 0.125 0.2,
                                  -0.32499999 -0.125 0.2,
                                  -0.375 -0.175 0.2,
                                  -0.625 -0.175 0.2,
                                  -0.67500001 -0.125 0.2,
                                  -0.67500001 0.125 0.2,
                                  1.875 0.175 0.2,
                                  2.125 0.175 0.2,
                                  2.175 0.125 0.2,
                                  2.175 -0.125 0.2,
                                  2.125 -0.175 0.2,
                                  1.875 -0.175 0.2,
                                  1.825 -0.125 0.2,
                                  1.825 0.125 0.2,
                                  0.625 0.175 0.2,
                                  0.875 0.175 0.2,
                                  0.92500001 0.125 0.2,
                                  0.92500001 -0.125 0.2,
                                  0.875 -0.175 0.2,
                                  0.625 -0.175 0.2,
                                  0.57499999 -0.125 0.2,
                                  0.57499999 0.125 0.2,
                                  -1.625 0.175 2.5,
                                  -1.875 0.175 2.5,
                                  -1.575 0.125 2.5,
                                  -1.575 -0.125 2.5,
                                  -1.625 -0.175 2.5,
                                  -1.875 -0.175 2.5,
                                  -1.925 -0.125 2.5,
                                  -1.925 0.125 2.5,
                                  -0.375 0.175 2.5,
                                  -0.625 0.175 2.5,
                                  -0.32499999 0.125 2.5,
                                  -0.32499999 -0.125 2.5,
                                  -0.375 -0.175 2.5,
                                  -0.625 -0.175 2.5,
                                  -0.67500001 -0.125 2.5,
                                  -0.67500001 0.125 2.5,
                                  2.125 0.175 2.5,
                                  1.875 0.175 2.5,
                                  2.175 0.125 2.5,
                                  2.175 -0.125 2.5,
                                  2.125 -0.175 2.5,
                                  1.875 -0.175 2.5,
                                  1.825 -0.125 2.5,
                                  1.825 0.125 2.5,
                                  0.875 0.175 2.5,
                                  0.625 0.175 2.5,
                                  0.92500001 0.125 2.5,
                                  0.92500001 -0.125 2.5,
                                  0.875 -0.175 2.5,
                                  0.625 -0.175 2.5,
                                  0.57499999 -0.125 2.5,
                                  0.57499999 0.125 2.5 ]

                            }
                            coordIndex [ 0, 1, -1, 1, 2, -1, 3, 2,
                                -1, 4, 3, -1, 4, 5, -1, 5,
                                6, -1, 6, 7, -1, 7, 8, -1,
                                8, 9, -1, 9, 10, -1, 10, 11,
                                -1, 0, 11, -1, 12, 13, -1, 13,
                                14, -1, 14, 15, -1, 15, 16, -1,
                                17, 12, -1, 19, 21, -1, 20, 21,
                                -1, 22, 23, -1, 23, 24, -1, 24,
                                25, -1, 25, 26, -1, 26, 27, -1,
                                28, 27, -1, 28, 29, -1, 22, 29,
                                -1, 30, 31, -1, 31, 32, -1, 32,
                                33, -1, 33, 34, -1, 34, 35, -1,
                                36, 35, -1, 36, 37, -1, 30, 37,
                                -1, 38, 39, -1, 39, 40, -1, 40,
                                41, -1, 41, 42, -1, 42, 43, -1,
                                44, 43, -1, 44, 45, -1, 38, 45,
                                -1, 46, 47, -1, 47, 48, -1, 48,
                                49, -1, 49, 50, -1, 50, 51, -1,
                                52, 51, -1, 52, 53, -1, 46, 53,
                                -1, 54, 55, -1, 55, 56, -1, 56,
                                57, -1, 57, 58, -1, 63, 62, -1,
                                64, 63, -1, 64, 65, -1, 65, 60,
                                -1, 67, 68, -1, 69, 68, -1, 72,
                                73, -1, 71, 73, -1, 76, 77, -1,
                                75, 77, -1, 80, 81, -1, 79, 81,
                                -1, 84, 85, -1, 83, 85, -1, 88,
                                89, -1, 87, 89, -1, 91, 92, -1,
                                93, 92, -1, 96, 97, -1, 97, 98,
                                -1, 99, 98, -1, 102, 103, -1, 107,
                                106, -1, 107, 108, -1, 109, 108, -1,
                                110, 109, -1, 111, 110, -1, 114, 113,
                                -1, 116, 117, -1, 117, 118, -1, 116,
                                119, -1, 120, 121, -1, 121, 122, -1,
                                122, 123, -1, 125, 126, -1, 126, 127,
                                -1, 129, 130, -1, 130, 131, -1, 131,
                                132, -1, 134, 135, -1, 135, 136, -1,
                                138, 139, -1, 139, 140, -1, 138, 142,
                                -1, 143, 144, -1, 144, 145, -1, 147,
                                148, -1, 148, 149, -1, 152, 153, -1,
                                153, 154, -1, 152, 155, -1, 156, 157,
                                -1, 157, 158, -1, 158, 159, -1, 161,
                                162, -1, 162, 163, -1, 165, 166, -1,
                                166, 167, -1, 167, 168, -1, 170, 171,
                                -1, 171, 172, -1, 174, 175, -1, 175,
                                176, -1, 174, 178, -1, 179, 180, -1,
                                180, 181, -1, 183, 184, -1, 184, 185,
                                -1, 188, 189, -1, 189, 190, -1, 188,
                                191, -1, 192, 193, -1, 193, 194, -1,
                                194, 195, -1, 197, 198, -1, 198, 199,
                                -1, 201, 202, -1, 202, 203, -1, 203,
                                204, -1, 206, 207, -1, 207, 208, -1,
                                210, 211, -1, 211, 212, -1, 210, 214,
                                -1, 215, 216, -1, 216, 217, -1, 219,
                                220, -1, 220, 221, -1, 224, 225, -1,
                                225, 226, -1, 224, 227, -1, 228, 229,
                                -1, 229, 230, -1, 230, 231, -1, 233,
                                234, -1, 234, 235, -1, 237, 238, -1,
                                238, 239, -1, 239, 240, -1, 242, 243,
                                -1, 243, 244, -1, 246, 247, -1, 247,
                                248, -1, 246, 250, -1, 251, 252, -1,
                                252, 253, -1, 255, 256, -1, 256, 257,
                                -1, 260, 262, -1, 267, 266, -1, 268,
                                267, -1, 269, 268, -1, 281, 280, -1,
                                270, 281, -1, 286, 285, -1, 287, 286,
                                -1, 288, 289, -1, 292, 293, -1, 293,
                                295, -1, 297, 295, -1, 299, 301, -1,
                                303, 301, -1, 305, 307, -1, 309, 307,
                                -1, 311, 313, -1, 316, 317, -1, 317,
                                319, -1, 321, 319, -1, 323, 325, -1,
                                327, 325, -1, 329, 331, -1, 333, 331,
                                -1, 335, 337, -1, 340, 341, -1, 341,
                                343, -1, 345, 343, -1, 347, 349, -1,
                                351, 349, -1, 353, 355, -1, 357, 355,
                                -1, 359, 361, -1, 364, 365, -1, 365,
                                367, -1, 369, 367, -1, 371, 373, -1,
                                375, 373, -1, 377, 379, -1, 381, 379,
                                -1, 383, 385, -1, 392, 393, -1, 393,
                                394, -1, 394, 395, -1, 395, 396, -1,
                                396, 397, -1, 398, 397, -1, 398, 399,
                                -1, 392, 399, -1, 400, 401, -1, 401,
                                402, -1, 402, 403, -1, 403, 404, -1,
                                404, 405, -1, 406, 405, -1, 406, 407,
                                -1, 400, 407, -1, 408, 409, -1, 409,
                                410, -1, 410, 411, -1, 411, 412, -1,
                                412, 413, -1, 414, 413, -1, 414, 415,
                                -1, 408, 415, -1, 416, 417, -1, 417,
                                418, -1, 418, 419, -1, 419, 420, -1,
                                420, 421, -1, 422, 421, -1, 422, 423,
                                -1, 416, 423, -1, 441, 442, -1, 443,
                                442, -1, 440, 443, -1, 445, 446, -1,
                                447, 446, -1, 449, 450, -1, 451, 450,
                                -1, 453, 454, -1, 455, 454, -1, 457,
                                458, -1, 459, 458, -1, 463, 462, -1,
                                460, 463, -1, 465, 466, -1, 467, 466,
                                -1, 471, 470, -1, 473, 474, -1, 475,
                                474, -1, 472, 475, -1, 477, 478, -1,
                                479, 478, -1, 481, 482, -1, 483, 482,
                                -1, 485, 486, -1, 487, 486, -1, 489,
                                490, -1, 491, 490, -1, 495, 494, -1,
                                492, 495, -1, 497, 498, -1, 499, 498,
                                -1, 503, 502, -1, 505, 506, -1, 507,
                                506, -1, 504, 507, -1, 509, 510, -1,
                                511, 510, -1, 513, 514, -1, 515, 514,
                                -1, 517, 518, -1, 519, 518, -1, 521,
                                522, -1, 523, 522, -1, 527, 526, -1,
                                524, 527, -1, 529, 530, -1, 531, 530,
                                -1, 535, 534, -1, 537, 538, -1, 539,
                                538, -1, 536, 539, -1, 541, 542, -1,
                                543, 542, -1, 545, 546, -1, 547, 546,
                                -1, 549, 550, -1, 551, 550, -1, 553,
                                554, -1, 555, 554, -1, 559, 558, -1,
                                556, 559, -1, 561, 562, -1, 563, 562,
                                -1, 567, 566, -1 ]

                          }

                        }

                    },
                      
                    DEF o7 Group {
                      children 
                        DEF o8 Shape {
                          appearance 
                          Appearance {
                            material 
                            Material {

                            }

                          }
                          geometry 
                          IndexedFaceSet {
                            coord 
                            USE o6
                            color 
                            Color {
                              color [ 0.80000001 0.80000001 0.80000001,
                                  0.80000001 0.80000001 0.80000001,
                                  0.80000001 0.80000001 0.80000001,
                                  0.80000001 0.80000001 0.80000001,
                                  0.80000001 0.80000001 0.80000001,
                                  0.80000001 0.80000001 0.80000001,
                                  0.80000001 0.80000001 0.80000001,
                                  0.80000001 0.80000001 0.80000001,
                                  0.80000001 0.80000001 0.80000001,
                                  0.80000001 0.80000001 0.80000001,
                                  0.80000001 0.80000001 0.80000001,
                                  0.80000001 0.80000001 0.80000001,
                                  0.80000001 0.80000001 0.80000001,
                                  0.80000001 0.80000001 0.80000001,
                                  0.80000001 0.80000001 0.80000001,
                                  0.80000001 0.80000001 0.80000001,
                                  0.40000001 0.40000001 0.40000001,
                                  0.40000001 0.40000001 0.40000001,
                                  0.40000001 0.40000001 0.40000001,
                                  0.40000001 0.40000001 0.40000001,
                                  0.40000001 0.40000001 0.40000001,
                                  0.40000001 0.40000001 0.40000001,
                                  0.40000001 0.40000001 0.40000001,
                                  0.40000001 0.40000001 0.40000001,
                                  0.40000001 0.40000001 0.40000001,
                                  0.40000001 0.40000001 0.40000001,
                                  0.40000001 0.40000001 0.40000001,
                                  0.40000001 0.40000001 0.40000001,
                                  0.40000001 0.40000001 0.40000001,
                                  0.40000001 0.40000001 0.40000001,
                                  0.40000001 0.40000001 0.40000001,
                                  0.40000001 0.40000001 0.40000001,
                                  0.40000001 0.40000001 0.40000001,
                                  0.40000001 0.40000001 0.40000001,
                                  0.40000001 0.40000001 0.40000001,
                                  0.40000001 0.40000001 0.40000001,
                                  0.40000001 0.40000001 0.40000001,
                                  0.40000001 0.40000001 0.40000001,
                                  0.40000001 0.40000001 0.40000001,
                                  0.40000001 0.40000001 0.40000001,
                                  0.40000001 0.40000001 0.40000001,
                                  0.40000001 0.40000001 0.40000001,
                                  0.40000001 0.40000001 0.40000001,
                                  0.40000001 0.40000001 0.40000001,
                                  0.40000001 0.40000001 0.40000001,
                                  0.40000001 0.40000001 0.40000001,
                                  0.40000001 0.40000001 0.40000001,
                                  0.40000001 0.40000001 0.40000001,
                                  0.80000001 0.80000001 0.80000001,
                                  0.80000001 0.80000001 0.80000001,
                                  0.80000001 0.80000001 0.80000001,
                                  0.80000001 0.80000001 0.80000001,
                                  0.80000001 0.80000001 0.80000001,
                                  0.40000001 0.40000001 0.40000001,
                                  0.40000001 0.40000001 0.40000001,
                                  0.40000001 0.40000001 0.40000001,
                                  0.40000001 0.40000001 0.40000001,
                                  0.40000001 0.40000001 0.40000001,
                                  0.40000001 0.40000001 0.40000001,
                                  0.40000001 0.40000001 0.40000001,
                                  0.40000001 0.40000001 0.40000001,
                                  0.40000001 0.40000001 0.40000001,
                                  0.40000001 0.40000001 0.40000001,
                                  0.40000001 0.40000001 0.40000001,
                                  0.40000001 0.40000001 0.40000001,
                                  0.40000001 0.40000001 0.40000001,
                                  0.40000001 0.40000001 0.40000001,
                                  0.40000001 0.40000001 0.40000001,
                                  0.40000001 0.40000001 0.40000001,
                                  0.80000001 0.80000001 0.80000001,
                                  0.40000001 0.40000001 0.40000001,
                                  0.40000001 0.40000001 0.40000001,
                                  0.40000001 0.40000001 0.40000001,
                                  0.40000001 0.40000001 0.40000001,
                                  0.40000001 0.40000001 0.40000001,
                                  0.40000001 0.40000001 0.40000001,
                                  0.40000001 0.40000001 0.40000001,
                                  0.40000001 0.40000001 0.40000001,
                                  0.40000001 0.40000001 0.40000001,
                                  0.40000001 0.40000001 0.40000001,
                                  0.40000001 0.40000001 0.40000001,
                                  0.40000001 0.40000001 0.40000001,
                                  0.40000001 0.40000001 0.40000001,
                                  0.40000001 0.40000001 0.40000001,
                                  0.40000001 0.40000001 0.40000001,
                                  0.40000001 0.40000001 0.40000001,
                                  0.40000001 0.40000001 0.40000001,
                                  0.40000001 0.40000001 0.40000001,
                                  0.40000001 0.40000001 0.40000001,
                                  0.40000001 0.40000001 0.40000001,
                                  0.40000001 0.40000001 0.40000001,
                                  0.40000001 0.40000001 0.40000001,
                                  0.40000001 0.40000001 0.40000001,
                                  0.40000001 0.40000001 0.40000001,
                                  0.40000001 0.40000001 0.40000001,
                                  0.40000001 0.40000001 0.40000001,
                                  0.40000001 0.40000001 0.40000001,
                                  0.40000001 0.40000001 0.40000001,
                                  0.40000001 0.40000001 0.40000001,
                                  0.40000001 0.40000001 0.40000001,
                                  0.40000001 0.40000001 0.40000001,
                                  0.40000001 0.40000001 0.40000001,
                                  0.40000001 0.40000001 0.40000001,
                                  0.40000001 0.40000001 0.40000001,
                                  0.40000001 0.40000001 0.40000001,
                                  0.40000001 0.40000001 0.40000001,
                                  0.40000001 0.40000001 0.40000001,
                                  0.40000001 0.40000001 0.40000001,
                                  0.40000001 0.40000001 0.40000001,
                                  0.40000001 0.40000001 0.40000001 ]

                            }
                            colorPerVertex FALSE
                            coordIndex [ 6, 3, 2, -1, 6, 4, 3, -1,
                                5, 4, 6, -1, 9, 11, 10, -1,
                                0, 11, 9, -1, 7, 6, 2, -1,
                                1, 9, 8, -1, 1, 0, 9, -1,
                                2, 1, 7, -1, 7, 1, 8, -1,
                                14, 15, 16, -1, 17, 14, 16, -1,
                                12, 13, 14, -1, 12, 14, 17, -1,
                                18, 23, 22, -1, 18, 29, 28, -1,
                                18, 22, 29, -1, 18, 31, 30, -1,
                                39, 19, 40, -1, 18, 30, 23, -1,
                                20, 18, 28, -1, 20, 27, 26, -1,
                                20, 28, 27, -1, 20, 35, 34, -1,
                                38, 19, 39, -1, 20, 34, 21, -1,
                                20, 26, 35, -1, 18, 19, 31, -1,
                                41, 40, 19, -1, 21, 42, 41, -1,
                                21, 43, 42, -1, 21, 41, 19, -1,
                                48, 45, 44, -1, 48, 38, 45, -1,
                                47, 19, 38, -1, 47, 38, 48, -1,
                                46, 19, 47, -1, 49, 48, 44, -1,
                                50, 44, 43, -1, 50, 43, 21, -1,
                                50, 49, 44, -1, 51, 50, 21, -1,
                                31, 46, 53, -1, 31, 19, 46, -1,
                                31, 53, 32, -1, 33, 53, 52, -1,
                                33, 32, 53, -1, 34, 52, 51, -1,
                                34, 51, 21, -1, 34, 33, 52, -1,
                                24, 30, 37, -1, 24, 23, 30, -1,
                                25, 37, 36, -1, 25, 24, 37, -1,
                                26, 36, 35, -1, 26, 25, 36, -1,
                                57, 56, 58, -1, 56, 59, 58, -1,
                                55, 54, 56, -1, 56, 54, 59, -1,
                                64, 63, 62, -1, 61, 64, 62, -1,
                                60, 65, 64, -1, 60, 64, 61, -1,
                                69, 67, 68, -1, 66, 67, 69, -1,
                                70, 72, 71, -1, 71, 72, 73, -1,
                                74, 76, 75, -1, 75, 76, 77, -1,
                                78, 80, 79, -1, 79, 80, 81, -1,
                                82, 84, 83, -1, 83, 84, 85, -1,
                                86, 88, 87, -1, 87, 88, 89, -1,
                                90, 92, 93, -1, 90, 91, 92, -1,
                                97, 96, 95, -1, 97, 99, 98, -1,
                                94, 97, 95, -1, 94, 99, 97, -1,
                                102, 100, 101, -1, 102, 101, 103, -1,
                                106, 108, 105, -1, 107, 108, 106, -1,
                                109, 104, 105, -1, 109, 105, 108, -1,
                                111, 109, 110, -1, 111, 104, 109, -1,
                                114, 112, 113, -1, 115, 112, 114, -1,
                                117, 119, 118, -1, 117, 116, 119, -1,
                                122, 121, 120, -1, 123, 120, 124, -1,
                                123, 122, 120, -1, 126, 128, 127, -1,
                                126, 125, 128, -1, 131, 130, 129, -1,
                                132, 129, 133, -1, 132, 131, 129, -1,
                                135, 137, 136, -1, 135, 134, 137, -1,
                                139, 140, 138, -1, 138, 141, 142, -1,
                                140, 141, 138, -1, 144, 146, 145, -1,
                                144, 143, 146, -1, 148, 149, 147, -1,
                                147, 150, 151, -1, 149, 150, 147, -1,
                                153, 155, 154, -1, 153, 152, 155, -1,
                                158, 157, 156, -1, 159, 156, 160, -1,
                                159, 158, 156, -1, 162, 164, 163, -1,
                                162, 161, 164, -1, 167, 166, 165, -1,
                                168, 165, 169, -1, 168, 167, 165, -1,
                                171, 173, 172, -1, 171, 170, 173, -1,
                                175, 176, 174, -1, 174, 177, 178, -1,
                                176, 177, 174, -1, 180, 182, 181, -1,
                                180, 179, 182, -1, 184, 185, 183, -1,
                                183, 186, 187, -1, 185, 186, 183, -1,
                                189, 191, 190, -1, 189, 188, 191, -1,
                                194, 193, 192, -1, 195, 192, 196, -1,
                                195, 194, 192, -1, 198, 200, 199, -1,
                                198, 197, 200, -1, 203, 202, 201, -1,
                                204, 201, 205, -1, 204, 203, 201, -1,
                                207, 209, 208, -1, 207, 206, 209, -1,
                                211, 212, 210, -1, 210, 213, 214, -1,
                                212, 213, 210, -1, 216, 218, 217, -1,
                                216, 215, 218, -1, 220, 221, 219, -1,
                                219, 222, 223, -1, 221, 222, 219, -1,
                                225, 227, 226, -1, 225, 224, 227, -1,
                                230, 229, 228, -1, 231, 228, 232, -1,
                                231, 230, 228, -1, 234, 236, 235, -1,
                                234, 233, 236, -1, 239, 238, 237, -1,
                                240, 237, 241, -1, 240, 239, 237, -1,
                                243, 245, 244, -1, 243, 242, 245, -1,
                                247, 248, 246, -1, 246, 249, 250, -1,
                                248, 249, 246, -1, 252, 254, 253, -1,
                                252, 251, 254, -1, 256, 257, 255, -1,
                                255, 258, 259, -1, 257, 258, 255, -1,
                                260, 262, 263, -1, 260, 263, 261, -1,
                                265, 264, 266, -1, 267, 265, 266, -1,
                                268, 269, 265, -1, 268, 265, 267, -1,
                                271, 274, 270, -1, 272, 274, 271, -1,
                                272, 273, 274, -1, 279, 277, 278, -1,
                                279, 280, 277, -1, 274, 275, 270, -1,
                                277, 281, 276, -1, 280, 281, 277, -1,
                                281, 270, 275, -1, 281, 275, 276, -1,
                                282, 283, 284, -1, 283, 285, 284, -1,
                                287, 286, 283, -1, 283, 286, 285, -1,
                                288, 291, 289, -1, 289, 291, 290, -1,
                                293, 292, 294, -1, 295, 294, 296, -1,
                                295, 296, 297, -1, 295, 293, 294, -1,
                                299, 298, 300, -1, 301, 300, 302, -1,
                                301, 302, 303, -1, 301, 299, 300, -1,
                                305, 304, 306, -1, 307, 306, 308, -1,
                                307, 308, 309, -1, 307, 305, 306, -1,
                                311, 310, 312, -1, 313, 312, 314, -1,
                                313, 314, 315, -1, 313, 311, 312, -1,
                                317, 316, 318, -1, 319, 318, 320, -1,
                                319, 320, 321, -1, 319, 317, 318, -1,
                                323, 322, 324, -1, 325, 324, 326, -1,
                                325, 326, 327, -1, 325, 323, 324, -1,
                                329, 328, 330, -1, 331, 330, 332, -1,
                                331, 332, 333, -1, 331, 329, 330, -1,
                                335, 334, 336, -1, 337, 336, 338, -1,
                                337, 338, 339, -1, 337, 335, 336, -1,
                                341, 340, 342, -1, 343, 342, 344, -1,
                                343, 344, 345, -1, 343, 341, 342, -1,
                                347, 346, 348, -1, 349, 348, 350, -1,
                                349, 350, 351, -1, 349, 347, 348, -1,
                                353, 352, 354, -1, 355, 354, 356, -1,
                                355, 356, 357, -1, 355, 353, 354, -1,
                                359, 358, 360, -1, 361, 360, 362, -1,
                                361, 362, 363, -1, 361, 359, 360, -1,
                                365, 364, 366, -1, 367, 366, 368, -1,
                                367, 368, 369, -1, 367, 365, 366, -1,
                                371, 370, 372, -1, 373, 372, 374, -1,
                                373, 374, 375, -1, 373, 371, 372, -1,
                                377, 376, 378, -1, 379, 378, 380, -1,
                                379, 380, 381, -1, 379, 377, 378, -1,
                                383, 382, 384, -1, 385, 384, 386, -1,
                                385, 386, 387, -1, 385, 383, 384, -1,
                                393, 389, 392, -1, 399, 389, 398, -1,
                                392, 389, 399, -1, 401, 389, 400, -1,
                                391, 409, 410, -1, 400, 389, 393, -1,
                                396, 388, 405, -1, 397, 388, 396, -1,
                                410, 411, 391, -1, 398, 388, 397, -1,
                                405, 388, 404, -1, 391, 408, 409, -1,
                                404, 388, 390, -1, 389, 388, 398, -1,
                                391, 389, 416, -1, 416, 389, 401, -1,
                                412, 390, 411, -1, 413, 390, 412, -1,
                                411, 390, 391, -1, 415, 418, 414, -1,
                                408, 418, 415, -1, 391, 417, 408, -1,
                                408, 417, 418, -1, 391, 416, 417, -1,
                                418, 419, 414, -1, 414, 420, 413, -1,
                                413, 420, 390, -1, 419, 420, 414, -1,
                                420, 421, 390, -1, 416, 402, 423, -1,
                                416, 401, 402, -1, 423, 403, 422, -1,
                                402, 403, 423, -1, 422, 404, 421, -1,
                                421, 404, 390, -1, 403, 404, 422, -1,
                                400, 394, 407, -1, 393, 394, 400, -1,
                                406, 395, 405, -1, 407, 395, 406, -1,
                                394, 395, 407, -1, 395, 396, 405, -1,
                                424, 425, 427, -1, 424, 427, 426, -1,
                                428, 429, 431, -1, 428, 431, 430, -1,
                                432, 433, 435, -1, 432, 435, 434, -1,
                                436, 437, 439, -1, 436, 439, 438, -1,
                                441, 443, 442, -1, 441, 440, 443, -1,
                                446, 445, 444, -1, 446, 444, 447, -1,
                                449, 451, 450, -1, 449, 448, 451, -1,
                                454, 453, 452, -1, 454, 452, 455, -1,
                                457, 459, 458, -1, 457, 456, 459, -1,
                                461, 462, 460, -1, 460, 462, 463, -1,
                                465, 467, 466, -1, 465, 464, 467, -1,
                                469, 470, 468, -1, 468, 470, 471, -1,
                                473, 475, 474, -1, 473, 472, 475, -1,
                                478, 477, 476, -1, 478, 476, 479, -1,
                                481, 483, 482, -1, 481, 480, 483, -1,
                                486, 485, 484, -1, 486, 484, 487, -1,
                                489, 491, 490, -1, 489, 488, 491, -1,
                                493, 494, 492, -1, 492, 494, 495, -1,
                                497, 499, 498, -1, 497, 496, 499, -1,
                                501, 502, 500, -1, 500, 502, 503, -1,
                                505, 507, 506, -1, 505, 504, 507, -1,
                                510, 509, 508, -1, 510, 508, 511, -1,
                                513, 515, 514, -1, 513, 512, 515, -1,
                                518, 517, 516, -1, 518, 516, 519, -1,
                                521, 523, 522, -1, 521, 520, 523, -1,
                                525, 526, 524, -1, 524, 526, 527, -1,
                                529, 531, 530, -1, 529, 528, 531, -1,
                                533, 534, 532, -1, 532, 534, 535, -1,
                                537, 539, 538, -1, 537, 536, 539, -1,
                                542, 541, 540, -1, 542, 540, 543, -1,
                                545, 547, 546, -1, 545, 544, 547, -1,
                                550, 549, 548, -1, 550, 548, 551, -1,
                                553, 555, 554, -1, 553, 552, 555, -1,
                                557, 558, 556, -1, 556, 558, 559, -1,
                                561, 563, 562, -1, 561, 560, 563, -1,
                                565, 566, 564, -1, 564, 566, 567, -1,
                                571, 569, 573, -1, 573, 569, 575, -1,
                                568, 570, 569, -1, 574, 570, 572, -1,
                                575, 570, 574, -1, 569, 570, 575, -1,
                                576, 578, 577, -1, 577, 578, 579, -1,
                                579, 578, 581, -1, 582, 578, 580, -1,
                                581, 578, 583, -1, 583, 578, 582, -1,
                                584, 586, 585, -1, 585, 586, 587, -1,
                                587, 586, 589, -1, 590, 586, 588, -1,
                                589, 586, 591, -1, 591, 586, 590, -1,
                                592, 594, 593, -1, 593, 594, 595, -1,
                                595, 594, 597, -1, 598, 594, 596, -1,
                                597, 594, 599, -1, 599, 594, 598, -1 ]
                            colorIndex [ 0, 0, 0, 0, 0, 0, 0, 0,
                                0, 0, 1, 1, 1, 1, 2, 2,
                                2, 2, 2, 2, 2, 2, 2, 2,
                                2, 2, 2, 2, 2, 2, 2, 2,
                                2, 2, 2, 2, 2, 2, 2, 2,
                                2, 2, 2, 2, 2, 2, 2, 2,
                                2, 2, 2, 2, 2, 2, 2, 2,
                                3, 3, 3, 3, 4, 4, 4, 4,
                                5, 5, 6, 6, 7, 7, 8, 8,
                                9, 9, 10, 10, 11, 11, 12, 12,
                                12, 12, 13, 13, 14, 14, 14, 14,
                                14, 14, 15, 15, 16, 16, 17, 17,
                                17, 18, 18, 19, 19, 19, 20, 20,
                                21, 21, 21, 22, 22, 23, 23, 23,
                                24, 24, 25, 25, 25, 26, 26, 27,
                                27, 27, 28, 28, 29, 29, 29, 30,
                                30, 31, 31, 31, 32, 32, 33, 33,
                                33, 34, 34, 35, 35, 35, 36, 36,
                                37, 37, 37, 38, 38, 39, 39, 39,
                                40, 40, 41, 41, 41, 42, 42, 43,
                                43, 43, 44, 44, 45, 45, 45, 46,
                                46, 47, 47, 47, 48, 48, 49, 49,
                                49, 49, 50, 50, 50, 50, 50, 50,
                                50, 50, 50, 50, 51, 51, 51, 51,
                                52, 52, 53, 53, 53, 53, 54, 54,
                                54, 54, 55, 55, 55, 55, 56, 56,
                                56, 56, 57, 57, 57, 57, 58, 58,
                                58, 58, 59, 59, 59, 59, 60, 60,
                                60, 60, 61, 61, 61, 61, 62, 62,
                                62, 62, 63, 63, 63, 63, 64, 64,
                                64, 64, 65, 65, 65, 65, 66, 66,
                                66, 66, 67, 67, 67, 67, 68, 68,
                                68, 68, 69, 69, 69, 69, 69, 69,
                                69, 69, 69, 69, 69, 69, 69, 69,
                                69, 69, 69, 69, 69, 69, 69, 69,
                                69, 69, 69, 69, 69, 69, 69, 69,
                                69, 69, 69, 69, 69, 69, 69, 69,
                                69, 69, 69, 69, 70, 70, 71, 71,
                                72, 72, 73, 73, 74, 74, 75, 75,
                                76, 76, 77, 77, 78, 78, 79, 79,
                                80, 80, 81, 81, 82, 82, 83, 83,
                                84, 84, 85, 85, 86, 86, 87, 87,
                                88, 88, 89, 89, 90, 90, 91, 91,
                                92, 92, 93, 93, 94, 94, 95, 95,
                                96, 96, 97, 97, 98, 98, 99, 99,
                                100, 100, 101, 101, 102, 102, 103, 103,
                                104, 104, 105, 105, 106, 106, 106, 106,
                                106, 106, 107, 107, 107, 107, 107, 107,
                                108, 108, 108, 108, 108, 108, 109, 109,
                                109, 109, 109, 109 ]
                            ccw TRUE
                            solid FALSE
                            convex TRUE
                            creaseAngle 0

                          }

                        }

                    },
                      
                    DEF o9 Group {
                      children 
                        DEF o10 Shape {
                          appearance 
                          Appearance {
                            material 
                            Material {
                              emissiveColor 0.098039217 0.098039217 0.098039217

                            }

                          }
                          geometry 
                          PointSet {
                            coord 
                            USE o6

                          }

                        }

                    } ]

                }

            }

        }

    }

}
