(module jst-1x3-1.25 (layer F.Cu) (tedit 5DC1E989)
  (fp_text reference REF** (at 0.25 1.75) (layer F.SilkS)
    (effects (font (size 0.6 0.6) (thickness 0.12)))
  )
  (fp_text value jst-1.25 (at 0.2 0.2) (layer F.Fab) hide
    (effects (font (size 0.7 0.7) (thickness 0.15)))
  )
  (fp_line (start -2.75 2.25) (end 2.75 2.25) (layer F.SilkS) (width 0.12))
  (fp_line (start 2.75 1.5) (end 2.75 2.25) (layer F.SilkS) (width 0.12))
  (fp_line (start -2.75 1.5) (end -2.75 2.25) (layer F.SilkS) (width 0.12))
  (fp_line (start -2.75 -2) (end -2.75 -2.5) (layer F.SilkS) (width 0.12))
  (fp_line (start -2.75 -2.5) (end 2.75 -2.5) (layer F.SilkS) (width 0.12))
  (fp_line (start 2.75 -2.5) (end 2.75 -2) (layer F.SilkS) (width 0.12))
  (pad 1 thru_hole rect (at -1.25 -1) (size 0.8 0.8) (drill 0.5) (layers *.Cu *.Mask))
  (pad 2 thru_hole circle (at 0 -1) (size 0.8 0.8) (drill 0.4) (layers *.Cu *.Mask))
  (pad 3 thru_hole circle (at 1.25 -1) (size 0.8 0.8) (drill 0.4) (layers *.Cu *.Mask))
  (model /home/cnn/MEGA/dev/freecad/coins.counter/board/3dmodels.custom/jst3-1.25.wrl
    (offset (xyz 4.05 1 0))
    (scale (xyz 0.4 0.4 0.4))
    (rotate (xyz 0 0 0))
  )
)
